{
  "binarytree": {
    "name": "binarytree",
    "version": "6.5.1",
    "file_name": "https://files.pythonhosted.org/packages/38/a2/53b9f2647bc337e40d895b55cf79b45157a348c9216884b56e2cb6cdbbf2/binarytree-6.5.1-py3-none-any.whl",
    "install_dir": "site",
    "sha256": "9d5db315f0520afec5a53b52c6ef6e30984e43f5ccf59c1416496a422ab2f4aa",
    "imports": ["binarytree"],
    "depends": ["graphviz", "setuptools", "setuptools-scm"]
  },
  "branca": {
    "name": "branca",
    "version": "0.5.0",
    "file_name": "https://files.pythonhosted.org/packages/6c/e2/16ce27dbfbc48b460e95aa2e900e905d3f1069b89d992820234d41f0db95/branca-0.5.0-py3-none-any.whl",
    "install_dir": "site",
    "sha256": "781ff32bf82979584b0004bd84c254cfccda26bc31b2f7333346d03fb7b97741",
    "imports": ["branca"],
    "depends": ["jinja2"]
  },
  "drawsvg": {
    "name": "drawSvg",
    "version": "1.8.3",
    "file_name": "https://files.pythonhosted.org/packages/65/07/6326bed81257671a3c3fd1f525bb9074c0bad61cb58ce77425dde2f18ee7/drawSvg-1.8.3-py3-none-any.whl",
    "install_dir": "site",
    "sha256": "2cef5cd3cc5cc01236da0142aa9afe053c2e9235861d38f6f77353ff8edb957f",
    "imports": ["drawSvg"],
    "depends": ["imageio", "numpy"]
  },
  "exif": {
    "name": "exif",
    "version": "1.6.0",
    "file_name": "https://files.pythonhosted.org/packages/25/75/acd3f11d4717bce8da4957c2b4e6e4d26a3ea079ecc61d42f6f07e30ca5c/exif-1.6.0-py3-none-any.whl",
    "install_dir": "site",
    "sha256": "2d002b5740eb897da43de1e6a8f4ebacf5171b4d0b8bc0182c70aebde1be86d3",
    "imports": ["exif"],
    "depends": ["plum-py"]
  },
  "filelock": {
    "name": "filelock",
    "version": "3.8.0",
    "file_name": "https://files.pythonhosted.org/packages/94/b3/ff2845971788613e646e667043fdb5f128e2e540aefa09a3c55be8290d6d/filelock-3.8.0-py3-none-any.whl",
    "install_dir": "site",
    "sha256": "617eb4e5eedc82fc5f47b6d61e4d11cb837c56cb4544e39081099fa17ad109d4",
    "imports": ["filelock"],
    "depends": []
  },
  "faker": {
    "name": "Faker",
    "version": "20.1.0",
    "file_name": "https://files.pythonhosted.org/packages/cc/9a/74db0cf3115df2f71edcaf8d86ed556195ac31575212c20425820f81bfd0/Faker-20.1.0-py3-none-any.whl",
    "install_dir": "site",
    "sha256": "aeb3e26742863d1e387f9d156f1c36e14af63bf5e6f36fb39b8c27f6a903be38",
    "imports": ["faker"],
    "depends": ["python-dateutil"]
  },
  "folium": {
    "name": "folium",
    "version": "0.12.1.post1",
    "file_name": "https://files.pythonhosted.org/packages/b9/05/bb30dc97efa1b431c88deac7a77af3d62df1423574c4fe2d5a10a4932e85/folium-0.12.1.post1-py2.py3-none-any.whl",
    "install_dir": "site",
    "sha256": "e856ae1de0b322a719b01ceed64ea16f6f011bd28ed22e954a7f7884313da672",
    "imports": ["folium"],
    "depends": ["branca", "jinja2", "numpy", "requests"]
  },
  "geojson": {
    "name": "geojson",
    "version": "3.1.0",
    "file_name": "https://files.pythonhosted.org/packages/8e/1b/4f57660aa148d3e3043d048b7e1ab87dfeb85204d0fdb5b4e19c08202162/geojson-3.1.0-py3-none-any.whl",
    "install_dir": "site",
    "sha256": "68a9771827237adb8c0c71f8527509c8f5bef61733aa434cefc9c9d4f0ebe8f3",
    "imports": ["geojson"],
    "depends": []
  },
  "ipythonblocks": {
    "name": "ipythonblocks",
    "version": "1.9.0",
    "file_name": "https://files.pythonhosted.org/packages/0a/2e/2ffc1f1f17fe48f98c9004b2612336384827b5c5889340027fd6046a7e7a/ipythonblocks-1.9.0-py2.py3-none-any.whl",
    "install_dir": "site",
    "sha256": "111858436fdb28289fde627b5b7c4a448e84c1cf6ada6387941dc4cbb19f6616",
    "imports": ["ipythonblocks"],
    "depends": ["ipython", "pillow", "requests"]
  },
  "iso8601": {
    "name": "iso8601",
    "version": "1.0.2",
    "file_name": "https://files.pythonhosted.org/packages/df/e5/589bc81d410139ec4e4f37d9af5a50987566abf6d087b3c4fbed708109a9/iso8601-1.0.2-py3-none-any.whl",
    "install_dir": "site",
    "sha256": "d7bc01b1c2a43b259570bb307f057abc578786ea734ba2b87b836c5efc5bd443",
    "imports": [],
    "depends": []
  },
  "lolviz": {
    "name": "lolviz",
    "version": "1.4.4",
    "file_name": "https://files.pythonhosted.org/packages/8e/93/bbfea1761c00bd36ab15c6c24ebf9ad9392f8c352dd68e528067ecc7379d/lolviz-1.4.4.tar.gz",
    "install_dir": "site",
    "sha256": "336451e490ebbe178e80b8cfdaa93399b75f5be73e20202827e7fa75cfa7d44a",
    "imports": ["lolviz"],
    "depends": ["graphviz"]
  },
  "osmiter": {
    "name": "osmiter",
    "version": "1.2.0",
    "file_name": "https://files.pythonhosted.org/packages/83/97/386b8caa3292cae8b0576888afbbee6c1003299619cfcc2f18758b2ffa55/osmiter-1.2.0-py3-none-any.whl",
    "install_dir": "site",
    "sha256": "ea443a40c3adbb0989a1e12912467654b54ac709c54e5f7f118cb5a597df128c",
    "imports": ["osmiter"],
    "depends": ["iso8601", "lzma", "protobuf", "typing-extensions"]
  },
  "plum-py": {
    "name": "plum-py",
    "version": "0.8.7",
    "file_name": "https://files.pythonhosted.org/packages/2f/da/8a9bdf5d3ea4b13d3142e0c77d6e85e4c2668aef6e4b9d5e9a6619049bdc/plum_py-0.8.7-py3-none-any.whl",
    "install_dir": "site",
    "sha256": "d791f059ef159adbe3c3b036557b5b431fa07db226a9de106a74e5e57441741d",
    "imports": ["plum"],
    "depends": []
  },
  "protobuf": {
    "name": "protobuf",
    "version": "4.21.5",
    "file_name": "https://files.pythonhosted.org/packages/59/29/1ae13c23a166b3ce3ae4975e8bc7a4fe7f3e4f39568544b3125321bafca7/protobuf-4.21.5-py2.py3-none-any.whl",
    "install_dir": "site",
    "sha256": "bf711b451212dc5b0fa45ae7dada07d8e71a4b0ff0bc8e4783ee145f47ac4f82",
    "imports": ["google"],
    "depends": []
  },
  "pyflakes": {
    "name": "pyflakes",
    "version": "3.1.0",
    "file_name": "https://files.pythonhosted.org/packages/00/e9/1e1fd7fae559bfd07704991e9a59dd1349b72423c904256c073ce88a9940/pyflakes-3.1.0-py2.py3-none-any.whl",
    "install_dir": "site",
    "sha256": "4132f6d49cb4dae6819e5379898f2b8cce3c5f23994194c24b77d5da2e36f774",
    "imports": ["pyflakes"],
    "depends": []
  },
  "pycodestyle": {
    "name": "pycodestyle",
    "version": "2.11.0",
    "file_name": "https://files.pythonhosted.org/packages/31/c2/e1508ed4395793f69e40fd8c6b5a690e1d568e649aae9492076a7b6befb4/pycodestyle-2.11.0-py2.py3-none-any.whl",
    "install_dir": "site",
    "sha256": "5d1013ba8dc7895b548be5afb05740ca82454fd899971563d2ef625d090326f8",
    "imports": ["pycodestyle"],
    "depends": []
  },
  "pyroutelib3": {
    "name": "pyroutelib3",
    "version": "1.7.2",
    "file_name": "https://files.pythonhosted.org/packages/ce/11/32a4f4c5fbd2c5ed1f2361c8e724d06f92a0bf9ed879e2f60f328a2c9068/pyroutelib3-1.7.2-py3-none-any.whl",
    "install_dir": "site",
    "sha256": "4b50dfcce7e6b469fc7e90f9d67397acb3a07e90939c8ecd8e6a3f84d1244065",
    "imports": ["pyroutelib3"],
    "depends": ["filelock", "osmiter", "typing-extensions"]
  },
  "qrcode": {
    "name": "qrcode",
    "version": "6.1",
    "file_name": "https://files.pythonhosted.org/packages/42/87/4a3a77e59ab7493d64da1f69bf1c2e899a4cf81e51b2baa855e8cc8115be/qrcode-6.1-py2.py3-none-any.whl",
    "install_dir": "site",
    "sha256": "3996ee560fc39532910603704c82980ff6d4d5d629f9c3f25f34174ce8606cf5",
    "imports": ["qrcode"],
    "depends": ["six", "pillow"]
  },
  "setuptools-scm": {
    "name": "setuptools-scm",
    "version": "7.0.5",
    "file_name": "https://files.pythonhosted.org/packages/01/ed/75a20e7b075e8ecb1f84e8debf833917905d8790b78008915bd68dddd5c4/setuptools_scm-7.0.5-py3-none-any.whl",
    "install_dir": "site",
    "sha256": "7930f720905e03ccd1e1d821db521bff7ec2ac9cf0ceb6552dd73d24a45d3b02",
    "imports": ["setuptools_scm"],
    "depends": ["packaging", "setuptools", "tomli", "typing-extensions"]
  },
  "fastjsonschema": {
    "name": "fastjsonschema",
    "version": "2.16.2",
    "file_name": "https://files.pythonhosted.org/packages/e4/be/cf1b876348070a23cb0c3ebfee7a452ad3a91b07b456dade3bd514656009/fastjsonschema-2.16.2-py3-none-any.whl",
    "install_dir": "site",
    "sha256": "21f918e8d9a1a4ba9c22e09574ba72267a6762d47822db9add95f6454e51cc1c",
    "imports": ["fastjsonschema"],
    "depends": []
  },
  "jupyter-core": {
    "name": "jupyter_core",
    "version": "5.1.0",
    "file_name": "https://files.pythonhosted.org/packages/ba/88/c829e2cef67fa173ab512a054d1ba7047c2559b311e9f9e7c55b0a9d8278/jupyter_core-5.1.0-py3-none-any.whl",
    "install_dir": "site",
    "sha256": "f5740d99606958544396914b08e67b668f45e7eff99ab47a7f4bcead419c02f4",
    "imports": [],
    "depends": ["platformdirs", "traitlets"]
  },
  "nbformat": {
    "name": "nbformat",
    "version": "5.7.0",
    "file_name": "https://files.pythonhosted.org/packages/5c/9f/957655d02f43b8bff77e6da08c94472b1229c13e7455bbd662163c9b78c0/nbformat-5.7.0-py3-none-any.whl",
    "install_dir": "site",
    "sha256": "1b05ec2c552c2f1adc745f4eddce1eac8ca9ffd59bb9fd859e827eaa031319f9",
    "imports": [],
    "depends": ["fastjsonschema", "jsonschema", "jupyter-core", "traitlets"]
  },
  "et-xmlfile": {
    "name": "et-xmlfile",
    "version": "1.1.0",
    "file_name": "https://files.pythonhosted.org/packages/96/c2/3dd434b0108730014f1b96fd286040dc3bcb70066346f7e01ec2ac95865f/et_xmlfile-1.1.0-py3-none-any.whl",
    "install_dir": "site",
    "sha256": "a2ba85d1d6a74ef63837eed693bcb89c3f752169b0e3e7ae5b16ca5e1b3deada",
    "imports": ["et_xmlfile"],
    "depends": []
  },
  "mocodo": {
    "name": "mocodo",
    "version": "4.2.0",
    "file_name": "https://files.pythonhosted.org/packages/b8/61/9f32dd38f2d28bf53e880bd56c2f9172d498f893ee1fd62c6e50a996ec6c/mocodo-4.2.0-py3-none-any.whl",
    "install_dir": "site",
    "sha256": "ab3bbf8567144ac693adfcbeb0f2a012d34ecbfc877fa3402f0a30aff814f509",
    "imports": ["mocodo"],
    "depends": ["IPython", "requests", "setuptools"]
  },
  "openpyxl": {
    "name": "openpyxl",
    "version": "3.1.2",
    "file_name": "https://files.pythonhosted.org/packages/6a/94/a59521de836ef0da54aaf50da6c4da8fb4072fb3053fa71f052fd9399e7a/openpyxl-3.1.2-py2.py3-none-any.whl",
    "install_dir": "site",
    "sha256": "f91456ead12ab3c6c2e9491cf33ba6d08357d802192379bb482f1033ade496f5",
    "imports": ["openpyxl"],
    "depends": ["et-xmlfile"]
  },
  "platformdirs": {
    "name": "platformdirs",
    "version": "2.6.0",
    "file_name": "https://files.pythonhosted.org/packages/87/69/cd019a9473bcdfb38983e2d550ccb239264fc4c2fc32c42ac1b1cc2506b6/platformdirs-2.6.0-py3-none-any.whl",
    "install_dir": "site",
    "sha256": "1a89a12377800c81983db6be069ec068eee989748799b946cce2a6e80dcc54ca",
    "imports": [],
    "depends": []
  },
  "plotly": {
    "name": "plotly",
    "version": "5.11.0",
    "file_name": "https://files.pythonhosted.org/packages/8b/9c/b4a50d20b05dbf36abce70869d794fa1e2fc398af4ef91e20da5e5c288bd/plotly-5.11.0-py2.py3-none-any.whl",
    "install_dir": "site",
    "sha256": "52fd74b08aa4fd5a55b9d3034a30dbb746e572d7ed84897422f927fdf687ea5f",
    "imports": [
      "_plotly_future_",
      "_plotly_utils",
      "jupyterlab_plotly",
      "plotly"
    ],
    "depends": ["distutils", "tenacity", "nbformat", "ipython"]
  },
  "gpx": {
    "name": "gpx",
    "version": "0.2.1",
    "file_name": "https://files.pythonhosted.org/packages/58/4b/29a9d230f8dd07828904bb94c3c4ae5e8b3d9415b1878f4141bdf59234b4/gpx-0.2.1-py3-none-any.whl",
    "install_dir": "site",
    "sha256": "10f34830d1cc7b35e3ee40d07b57ff7c8006c9e5b2b01111d111f23da9fa1e1d",
    "imports": ["gpx"],
    "depends": ["lxml", "python-dateutil"]
  },
  "tenacity": {
    "name": "tenacity",
    "version": "8.1.0",
    "file_name": "https://files.pythonhosted.org/packages/a5/94/933ce16d18450ccf518a6da5bd51418611e8776b992070b9f40b2f9cedff/tenacity-8.1.0-py3-none-any.whl",
    "install_dir": "site",
    "sha256": "35525cd47f82830069f0d6b73f7eb83bc5b73ee2fff0437952cedf98b27653ac",
    "imports": ["tenacity"],
    "depends": []
  },
  "traitlets": {
    "name": "traitlets",
    "version": "5.7.0",
    "file_name": "https://files.pythonhosted.org/packages/da/31/a4740b0177838e5b1b50478cff4de09e5373ba8e5ed0998ae045b42218df/traitlets-5.7.0-py3-none-any.whl",
    "install_dir": "site",
    "sha256": "61832ea7b7f910f5745e27e9bb269a181fd15af76027d99560299209d5b17c94",
    "imports": [],
    "depends": []
  }
}
