<?xml version="1.0" encoding="UTF-8" standalone="no"?>
<!DOCTYPE svg PUBLIC "-//W3C//DTD SVG 1.1//EN"
 "http://www.w3.org/Graphics/SVG/1.1/DTD/svg11.dtd">
<!-- Generated by graphviz version 2.40.1 (20161225.0304)
 -->
<!-- Title: G Pages: 1 -->
<svg width="166pt" height="41pt"
 viewBox="0.00 0.00 166.00 41.00" xmlns="http://www.w3.org/2000/svg" xmlns:xlink="http://www.w3.org/1999/xlink">
<g id="graph0" class="graph" transform="scale(1 1) rotate(0) translate(4 37)">
<title>G</title>
<polygon fill="#ffffff" stroke="transparent" points="-4,4 -4,-37 162,-37 162,4 -4,4"/>
<!-- node -->
<g id="node" class="node">
<title>node</title>
<polygon fill="none" stroke="#000000" stroke-width=".5" points="158,-33 0,-33 0,0 158,0 158,-33"/>
<polygon fill="#fefecd" stroke="transparent" points="1,-19.5 1,-31.5 20,-31.5 20,-19.5 1,-19.5"/>
<polyline fill="none" stroke="#000000" points="1,-19.5 20,-19.5 20,-31.5 "/>
<text text-anchor="start" x="7.9984" y="-22.4" font-family="Helvetica,sans-Serif" font-size="9.00" fill="#444443">0</text>
<polygon fill="#fefecd" stroke="transparent" points="20,-19.5 20,-31.5 55,-31.5 55,-19.5 20,-19.5"/>
<polyline fill="none" stroke="#000000" points="20,-19.5 55,-19.5 55,-31.5 "/>
<text text-anchor="start" x="34.9984" y="-22.4" font-family="Helvetica,sans-Serif" font-size="9.00" fill="#444443">1</text>
<polygon fill="#fefecd" stroke="transparent" points="55,-19.5 55,-31.5 86,-31.5 86,-19.5 55,-19.5"/>
<polyline fill="none" stroke="#000000" points="55,-19.5 86,-19.5 86,-31.5 "/>
<text text-anchor="start" x="67.9984" y="-22.4" font-family="Helvetica,sans-Serif" font-size="9.00" fill="#444443">2</text>
<polygon fill="#fefecd" stroke="transparent" points="86,-19.5 86,-31.5 157,-31.5 157,-19.5 86,-19.5"/>
<polyline fill="none" stroke="#000000" points="86,-19.5 157,-19.5 "/>
<text text-anchor="start" x="118.9985" y="-22.4" font-family="Helvetica,sans-Serif" font-size="9.00" fill="#444443">3</text>
<polygon fill="#fefecd" stroke="transparent" points="1,-.5 1,-19.5 20,-19.5 20,-.5 1,-.5"/>
<polyline fill="none" stroke="#000000" points="20,-.5 20,-19.5 "/>
<text text-anchor="start" x="3.7922" y="-6.6" font-family="Helvetica,sans-Serif" font-size="11.00" fill="#444443">&#39;hi&#39;</text>
<polygon fill="#fefecd" stroke="transparent" points="20,-.5 20,-19.5 55,-19.5 55,-.5 20,-.5"/>
<polyline fill="none" stroke="#000000" points="55,-.5 55,-19.5 "/>
<text text-anchor="start" x="22.8507" y="-6.6" font-family="Helvetica,sans-Serif" font-size="11.00" fill="#444443">&#39;mom&#39;</text>
<polygon fill="#fefecd" stroke="transparent" points="55,-.5 55,-19.5 86,-19.5 86,-.5 55,-.5"/>
<polyline fill="none" stroke="#000000" points="86,-.5 86,-19.5 "/>
<text text-anchor="start" x="57.6553" y="-6.6" font-family="Helvetica,sans-Serif" font-size="11.00" fill="#444443">{3, 4}</text>
<polygon fill="#fefecd" stroke="transparent" points="86,-.5 86,-19.5 157,-19.5 157,-.5 86,-.5"/>
<text text-anchor="start" x="87.9093" y="-6.7" font-family="Helvetica,sans-Serif" font-size="11.00" fill="#444443">{&#39;parrt&#39;: &#39;user&#39;}</text>
</g>
</g>
</svg>
